<?xml version="1.0" standalone="no"?>
<!-- Generator: Adobe Fireworks 10, Export SVG Extension by Aaron Beall (http://fireworks.abeall.com) . Version: 0.6.0  -->
<!DOCTYPE svg PUBLIC "-//W3C//DTD SVG 1.1//EN" "http://www.w3.org/Graphics/SVG/1.1/DTD/svg11.dtd">
<svg id="Untitled-2" viewBox="0 0 22 21" style="background-color:#ffffff00" version="1.1"
	xmlns="http://www.w3.org/2000/svg" xmlns:xlink="http://www.w3.org/1999/xlink" xml:space="preserve"
	x="0px" y="0px" width="22px" height="21px"
>
	<g id="Layer%201">
		<rect x="0" y="0" width="22" height="3" fill="#ffffff"/>
		<rect x="0" y="8" width="22" height="3" fill="#ffffff"/>
		<rect x="0" y="16" width="22" height="3" fill="#ffffff"/>
	</g>
</svg>